<?xml version="1.0" encoding="UTF-8" standalone="no"?>
<graphml xmlns="http://graphml.graphdrawing.org/xmlns" xmlns:java="http://www.yworks.com/xml/yfiles-common/1.0/java" xmlns:sys="http://www.yworks.com/xml/yfiles-common/markup/primitives/2.0" xmlns:x="http://www.yworks.com/xml/yfiles-common/markup/2.0" xmlns:xsi="http://www.w3.org/2001/XMLSchema-instance" xmlns:y="http://www.yworks.com/xml/graphml" xmlns:yed="http://www.yworks.com/xml/yed/3" xsi:schemaLocation="http://graphml.graphdrawing.org/xmlns http://www.yworks.com/xml/schema/graphml/1.1/ygraphml.xsd">
  <!--Created by yEd 3.17.2-->
  <key attr.name="Description" attr.type="string" for="graph" id="d0"/>
  <key for="port" id="d1" yfiles.type="portgraphics"/>
  <key for="port" id="d2" yfiles.type="portgeometry"/>
  <key for="port" id="d3" yfiles.type="portuserdata"/>
  <key attr.name="url" attr.type="string" for="node" id="d4"/>
  <key attr.name="description" attr.type="string" for="node" id="d5"/>
  <key for="node" id="d6" yfiles.type="nodegraphics"/>
  <key for="graphml" id="d7" yfiles.type="resources"/>
  <key attr.name="url" attr.type="string" for="edge" id="d8"/>
  <key attr.name="description" attr.type="string" for="edge" id="d9"/>
  <key for="edge" id="d10" yfiles.type="edgegraphics"/>
  <graph edgedefault="directed" id="G">
    <data key="d0"/>
    <node id="n0">
      <data key="d5"/>
      <data key="d6">
        <y:ShapeNode>
          <y:Geometry height="43.0" width="99.0" x="880.6499999999999" y="820.05"/>
          <y:Fill color="#FFFF99" transparent="false"/>
          <y:BorderStyle color="#000000" raised="false" type="line" width="1.0"/>
          <y:NodeLabel alignment="center" autoSizePolicy="content" fontFamily="Dialog" fontSize="12" fontStyle="plain" hasBackgroundColor="false" hasLineColor="false" height="18.701171875" horizontalTextPosition="center" iconTextGap="4" modelName="custom" textColor="#000000" verticalTextPosition="bottom" visible="true" width="77.341796875" x="10.8291015625" y="12.1494140625">MAHASISWA<y:LabelModel>
              <y:SmartNodeLabelModel distance="4.0"/>
            </y:LabelModel>
            <y:ModelParameter>
              <y:SmartNodeLabelModelParameter labelRatioX="0.0" labelRatioY="0.0" nodeRatioX="0.0" nodeRatioY="0.0" offsetX="0.0" offsetY="0.0" upX="0.0" upY="-1.0"/>
            </y:ModelParameter>
          </y:NodeLabel>
          <y:Shape type="rectangle"/>
        </y:ShapeNode>
      </data>
    </node>
    <node id="n1">
      <data key="d5"/>
      <data key="d6">
        <y:ShapeNode>
          <y:Geometry height="84.0" width="90.99999999999994" x="1041.5249999999999" y="799.55"/>
          <y:Fill color="#FFFF99" transparent="false"/>
          <y:BorderStyle color="#000000" raised="false" type="line" width="1.0"/>
          <y:NodeLabel alignment="center" autoSizePolicy="content" fontFamily="Dialog" fontSize="12" fontStyle="plain" hasBackgroundColor="false" hasLineColor="false" height="33.40234375" horizontalTextPosition="center" iconTextGap="4" modelName="custom" textColor="#000000" verticalTextPosition="bottom" visible="true" width="65.341796875" x="12.8291015625" y="25.298828125">LOGIN
REGISTER<y:LabelModel>
              <y:SmartNodeLabelModel distance="4.0"/>
            </y:LabelModel>
            <y:ModelParameter>
              <y:SmartNodeLabelModelParameter labelRatioX="0.0" labelRatioY="0.0" nodeRatioX="0.0" nodeRatioY="0.0" offsetX="0.0" offsetY="0.0" upX="0.0" upY="-1.0"/>
            </y:ModelParameter>
          </y:NodeLabel>
          <y:Shape type="ellipse"/>
        </y:ShapeNode>
      </data>
    </node>
    <node id="n2">
      <data key="d5"/>
      <data key="d6">
        <y:SVGNode>
          <y:Geometry height="47.612998962402344" width="39.25" x="1067.3999999999999" y="976.7435005187988"/>
          <y:Fill color="#CCCCFF" transparent="false"/>
          <y:BorderStyle color="#000000" type="line" width="1.0"/>
          <y:NodeLabel alignment="center" autoSizePolicy="content" fontFamily="Dialog" fontSize="12" fontStyle="plain" hasBackgroundColor="false" hasLineColor="false" height="18.701171875" horizontalTextPosition="center" iconTextGap="4" modelName="custom" textColor="#000000" verticalTextPosition="bottom" visible="true" width="52.6796875" x="-6.71484375" y="51.612998962402344">DB_User<y:LabelModel>
              <y:SmartNodeLabelModel distance="4.0"/>
            </y:LabelModel>
            <y:ModelParameter>
              <y:SmartNodeLabelModelParameter labelRatioX="0.0" labelRatioY="-0.5" nodeRatioX="0.0" nodeRatioY="0.5" offsetX="0.0" offsetY="4.0" upX="0.0" upY="-1.0"/>
            </y:ModelParameter>
          </y:NodeLabel>
          <y:SVGNodeProperties usingVisualBounds="true"/>
          <y:SVGModel svgBoundsPolicy="0">
            <y:SVGContent refid="1"/>
          </y:SVGModel>
        </y:SVGNode>
      </data>
    </node>
    <node id="n3">
      <data key="d5"/>
      <data key="d6">
        <y:ShapeNode>
          <y:Geometry height="74.0" width="78.0" x="1224.3999999999999" y="804.55"/>
          <y:Fill color="#FFFF99" transparent="false"/>
          <y:BorderStyle color="#000000" raised="false" type="line" width="1.0"/>
          <y:NodeLabel alignment="center" autoSizePolicy="content" fontFamily="Dialog" fontSize="12" fontStyle="plain" hasBackgroundColor="false" hasLineColor="false" height="18.701171875" horizontalTextPosition="center" iconTextGap="4" modelName="custom" textColor="#000000" verticalTextPosition="bottom" visible="true" width="73.357421875" x="2.3212890625" y="27.6494140625">JOIN KELAS<y:LabelModel>
              <y:SmartNodeLabelModel distance="4.0"/>
            </y:LabelModel>
            <y:ModelParameter>
              <y:SmartNodeLabelModelParameter labelRatioX="0.0" labelRatioY="0.0" nodeRatioX="0.0" nodeRatioY="0.0" offsetX="0.0" offsetY="0.0" upX="0.0" upY="-1.0"/>
            </y:ModelParameter>
          </y:NodeLabel>
          <y:Shape type="ellipse"/>
        </y:ShapeNode>
      </data>
    </node>
    <node id="n4">
      <data key="d5"/>
      <data key="d6">
        <y:ShapeNode>
          <y:Geometry height="163.0" width="168.0" x="1382.0249999999996" y="760.05"/>
          <y:Fill color="#FFFF99" transparent="false"/>
          <y:BorderStyle color="#000000" raised="false" type="line" width="1.0"/>
          <y:NodeLabel alignment="center" autoSizePolicy="content" fontFamily="Dialog" fontSize="12" fontStyle="plain" hasBackgroundColor="false" hasLineColor="false" height="18.701171875" horizontalTextPosition="center" iconTextGap="4" modelName="custom" textColor="#000000" verticalTextPosition="bottom" visible="true" width="130.697265625" x="18.6513671875" y="72.1494140625">MENGERJAKAN SOAL<y:LabelModel>
              <y:SmartNodeLabelModel distance="4.0"/>
            </y:LabelModel>
            <y:ModelParameter>
              <y:SmartNodeLabelModelParameter labelRatioX="0.0" labelRatioY="0.0" nodeRatioX="0.0" nodeRatioY="0.0" offsetX="0.0" offsetY="0.0" upX="0.0" upY="-1.0"/>
            </y:ModelParameter>
          </y:NodeLabel>
          <y:Shape type="ellipse"/>
        </y:ShapeNode>
      </data>
    </node>
    <node id="n5">
      <data key="d5"/>
      <data key="d6">
        <y:SVGNode>
          <y:Geometry height="47.612998962402344" width="39.25" x="1243.7749999999999" y="976.7435005187988"/>
          <y:Fill color="#CCCCFF" transparent="false"/>
          <y:BorderStyle color="#000000" type="line" width="1.0"/>
          <y:NodeLabel alignment="center" autoSizePolicy="content" fontFamily="Dialog" fontSize="12" fontStyle="plain" hasBackgroundColor="false" hasLineColor="false" height="18.701171875" horizontalTextPosition="center" iconTextGap="4" modelName="custom" textColor="#000000" verticalTextPosition="bottom" visible="true" width="57.361328125" x="-9.0556640625" y="51.612998962402344">DB_Kelas<y:LabelModel>
              <y:SmartNodeLabelModel distance="4.0"/>
            </y:LabelModel>
            <y:ModelParameter>
              <y:SmartNodeLabelModelParameter labelRatioX="0.0" labelRatioY="-0.5" nodeRatioX="0.0" nodeRatioY="0.5" offsetX="0.0" offsetY="4.0" upX="0.0" upY="-1.0"/>
            </y:ModelParameter>
          </y:NodeLabel>
          <y:SVGNodeProperties usingVisualBounds="true"/>
          <y:SVGModel svgBoundsPolicy="0">
            <y:SVGContent refid="1"/>
          </y:SVGModel>
        </y:SVGNode>
      </data>
    </node>
    <node id="n6">
      <data key="d5"/>
      <data key="d6">
        <y:SVGNode>
          <y:Geometry height="47.612998962402344" width="39.25" x="1446.3999999999996" y="976.7435005187988"/>
          <y:Fill color="#CCCCFF" transparent="false"/>
          <y:BorderStyle color="#000000" type="line" width="1.0"/>
          <y:NodeLabel alignment="center" autoSizePolicy="content" fontFamily="Dialog" fontSize="12" fontStyle="plain" hasBackgroundColor="false" hasLineColor="false" height="18.701171875" horizontalTextPosition="center" iconTextGap="4" modelName="custom" textColor="#000000" verticalTextPosition="bottom" visible="true" width="51.361328125" x="-6.0556640625" y="51.612998962402344">DB_Soal<y:LabelModel>
              <y:SmartNodeLabelModel distance="4.0"/>
            </y:LabelModel>
            <y:ModelParameter>
              <y:SmartNodeLabelModelParameter labelRatioX="0.0" labelRatioY="-0.5" nodeRatioX="0.0" nodeRatioY="0.5" offsetX="0.0" offsetY="4.0" upX="0.0" upY="-1.0"/>
            </y:ModelParameter>
          </y:NodeLabel>
          <y:SVGNodeProperties usingVisualBounds="true"/>
          <y:SVGModel svgBoundsPolicy="0">
            <y:SVGContent refid="1"/>
          </y:SVGModel>
        </y:SVGNode>
      </data>
    </node>
    <node id="n7">
      <data key="d5"/>
      <data key="d6">
        <y:ShapeNode>
          <y:Geometry height="74.0" width="78.0" x="1613.3999999999996" y="804.55"/>
          <y:Fill color="#FFFF99" transparent="false"/>
          <y:BorderStyle color="#000000" raised="false" type="line" width="1.0"/>
          <y:NodeLabel alignment="center" autoSizePolicy="content" fontFamily="Dialog" fontSize="12" fontStyle="plain" hasBackgroundColor="false" hasLineColor="false" height="18.701171875" horizontalTextPosition="center" iconTextGap="4" modelName="custom" textColor="#000000" verticalTextPosition="bottom" visible="true" width="46.673828125" x="15.6630859375" y="27.6494140625">SCORE<y:LabelModel>
              <y:SmartNodeLabelModel distance="4.0"/>
            </y:LabelModel>
            <y:ModelParameter>
              <y:SmartNodeLabelModelParameter labelRatioX="0.0" labelRatioY="0.0" nodeRatioX="0.0" nodeRatioY="0.0" offsetX="0.0" offsetY="0.0" upX="0.0" upY="-1.0"/>
            </y:ModelParameter>
          </y:NodeLabel>
          <y:Shape type="ellipse"/>
        </y:ShapeNode>
      </data>
    </node>
    <edge id="e0" source="n1" target="n2">
      <data key="d9"/>
      <data key="d10">
        <y:PolyLineEdge>
          <y:Path sx="0.0" sy="0.0" tx="0.0" ty="0.0"/>
          <y:LineStyle color="#000000" type="line" width="1.0"/>
          <y:Arrows source="none" target="standard"/>
          <y:BendStyle smoothed="false"/>
        </y:PolyLineEdge>
      </data>
    </edge>
    <edge id="e1" source="n0" target="n1">
      <data key="d9"/>
      <data key="d10">
        <y:PolyLineEdge>
          <y:Path sx="0.0" sy="0.0" tx="0.0" ty="0.0"/>
          <y:LineStyle color="#000000" type="line" width="1.0"/>
          <y:Arrows source="none" target="standard"/>
          <y:BendStyle smoothed="false"/>
        </y:PolyLineEdge>
      </data>
    </edge>
    <edge id="e2" source="n1" target="n3">
      <data key="d9"/>
      <data key="d10">
        <y:PolyLineEdge>
          <y:Path sx="0.0" sy="0.0" tx="0.0" ty="0.0"/>
          <y:LineStyle color="#000000" type="line" width="1.0"/>
          <y:Arrows source="none" target="standard"/>
          <y:BendStyle smoothed="false"/>
        </y:PolyLineEdge>
      </data>
    </edge>
    <edge id="e3" source="n3" target="n4">
      <data key="d9"/>
      <data key="d10">
        <y:PolyLineEdge>
          <y:Path sx="0.0" sy="0.0" tx="0.0" ty="0.0"/>
          <y:LineStyle color="#000000" type="line" width="1.0"/>
          <y:Arrows source="none" target="standard"/>
          <y:BendStyle smoothed="false"/>
        </y:PolyLineEdge>
      </data>
    </edge>
    <edge id="e4" source="n2" target="n1">
      <data key="d9"/>
      <data key="d10">
        <y:PolyLineEdge>
          <y:Path sx="0.0" sy="0.0" tx="0.0" ty="0.0"/>
          <y:LineStyle color="#000000" type="line" width="1.0"/>
          <y:Arrows source="none" target="standard"/>
          <y:BendStyle smoothed="false"/>
        </y:PolyLineEdge>
      </data>
    </edge>
    <edge id="e5" source="n5" target="n3">
      <data key="d9"/>
      <data key="d10">
        <y:PolyLineEdge>
          <y:Path sx="0.0" sy="0.0" tx="0.0" ty="0.0"/>
          <y:LineStyle color="#000000" type="line" width="1.0"/>
          <y:Arrows source="none" target="standard"/>
          <y:BendStyle smoothed="false"/>
        </y:PolyLineEdge>
      </data>
    </edge>
    <edge id="e6" source="n3" target="n5">
      <data key="d9"/>
      <data key="d10">
        <y:PolyLineEdge>
          <y:Path sx="0.0" sy="0.0" tx="0.0" ty="0.0"/>
          <y:LineStyle color="#000000" type="line" width="1.0"/>
          <y:Arrows source="none" target="standard"/>
          <y:BendStyle smoothed="false"/>
        </y:PolyLineEdge>
      </data>
    </edge>
    <edge id="e7" source="n4" target="n6">
      <data key="d9"/>
      <data key="d10">
        <y:PolyLineEdge>
          <y:Path sx="0.0" sy="0.0" tx="0.0" ty="0.0"/>
          <y:LineStyle color="#000000" type="line" width="1.0"/>
          <y:Arrows source="none" target="standard"/>
          <y:BendStyle smoothed="false"/>
        </y:PolyLineEdge>
      </data>
    </edge>
    <edge id="e8" source="n6" target="n4">
      <data key="d9"/>
      <data key="d10">
        <y:PolyLineEdge>
          <y:Path sx="0.0" sy="0.0" tx="0.0" ty="0.0"/>
          <y:LineStyle color="#000000" type="line" width="1.0"/>
          <y:Arrows source="none" target="standard"/>
          <y:BendStyle smoothed="false"/>
        </y:PolyLineEdge>
      </data>
    </edge>
    <edge id="e9" source="n6" target="n5">
      <data key="d9"/>
      <data key="d10">
        <y:PolyLineEdge>
          <y:Path sx="0.0" sy="0.0" tx="0.0" ty="0.0"/>
          <y:LineStyle color="#000000" type="line" width="1.0"/>
          <y:Arrows source="none" target="standard"/>
          <y:BendStyle smoothed="false"/>
        </y:PolyLineEdge>
      </data>
    </edge>
    <edge id="e10" source="n4" target="n7">
      <data key="d9"/>
      <data key="d10">
        <y:PolyLineEdge>
          <y:Path sx="0.0" sy="0.0" tx="0.0" ty="0.0"/>
          <y:LineStyle color="#000000" type="line" width="1.0"/>
          <y:Arrows source="none" target="standard"/>
          <y:BendStyle smoothed="false"/>
        </y:PolyLineEdge>
      </data>
    </edge>
    <edge id="e11" source="n7" target="n6">
      <data key="d9"/>
      <data key="d10">
        <y:PolyLineEdge>
          <y:Path sx="0.0" sy="0.0" tx="0.0" ty="0.0">
            <y:Point x="1652.3999999999996" y="1000.55"/>
          </y:Path>
          <y:LineStyle color="#000000" type="line" width="1.0"/>
          <y:Arrows source="none" target="standard"/>
          <y:BendStyle smoothed="false"/>
        </y:PolyLineEdge>
      </data>
    </edge>
  </graph>
  <data key="d7">
    <y:Resources>
      <y:Resource id="1">&lt;?xml version="1.0" encoding="utf-8"?&gt;
&lt;svg version="1.1"
	 xmlns="http://www.w3.org/2000/svg" xmlns:xlink="http://www.w3.org/1999/xlink"
	 x="0px" y="0px" width="40px" height="48px" viewBox="0 0 40 48" enable-background="new 0 0 40 48" xml:space="preserve"&gt;
&lt;defs&gt;
&lt;/defs&gt;
&lt;linearGradient id="SVGID_1_" gradientUnits="userSpaceOnUse" x1="370.2002" y1="655.0938" x2="409.4502" y2="655.0938" gradientTransform="matrix(1 0 0 1 -370.2002 -614.5742)"&gt;
	&lt;stop  offset="0" style="stop-color:#4D4D4D"/&gt;
	&lt;stop  offset="0.0558" style="stop-color:#5F5F5F"/&gt;
	&lt;stop  offset="0.2103" style="stop-color:#8D8D8D"/&gt;
	&lt;stop  offset="0.3479" style="stop-color:#AEAEAE"/&gt;
	&lt;stop  offset="0.4623" style="stop-color:#C2C2C2"/&gt;
	&lt;stop  offset="0.5394" style="stop-color:#C9C9C9"/&gt;
	&lt;stop  offset="0.6247" style="stop-color:#C5C5C5"/&gt;
	&lt;stop  offset="0.7072" style="stop-color:#BABABA"/&gt;
	&lt;stop  offset="0.7885" style="stop-color:#A6A6A6"/&gt;
	&lt;stop  offset="0.869" style="stop-color:#8B8B8B"/&gt;
	&lt;stop  offset="0.9484" style="stop-color:#686868"/&gt;
	&lt;stop  offset="1" style="stop-color:#4D4D4D"/&gt;
&lt;/linearGradient&gt;
&lt;path fill="url(#SVGID_1_)" d="M19.625,37.613C8.787,37.613,0,35.738,0,33.425v10c0,2.313,8.787,4.188,19.625,4.188
	c10.839,0,19.625-1.875,19.625-4.188v-10C39.25,35.738,30.464,37.613,19.625,37.613z"/&gt;
&lt;linearGradient id="SVGID_2_" gradientUnits="userSpaceOnUse" x1="370.2002" y1="649.0938" x2="409.4502" y2="649.0938" gradientTransform="matrix(1 0 0 1 -370.2002 -614.5742)"&gt;
	&lt;stop  offset="0" style="stop-color:#B3B3B3"/&gt;
	&lt;stop  offset="0.0171" style="stop-color:#B6B6B6"/&gt;
	&lt;stop  offset="0.235" style="stop-color:#D7D7D7"/&gt;
	&lt;stop  offset="0.4168" style="stop-color:#EBEBEB"/&gt;
	&lt;stop  offset="0.5394" style="stop-color:#F2F2F2"/&gt;
	&lt;stop  offset="0.6579" style="stop-color:#EEEEEE"/&gt;
	&lt;stop  offset="0.7724" style="stop-color:#E3E3E3"/&gt;
	&lt;stop  offset="0.8853" style="stop-color:#CFCFCF"/&gt;
	&lt;stop  offset="0.9965" style="stop-color:#B4B4B4"/&gt;
	&lt;stop  offset="1" style="stop-color:#B3B3B3"/&gt;
&lt;/linearGradient&gt;
&lt;path fill="url(#SVGID_2_)" d="M19.625,37.613c10.839,0,19.625-1.875,19.625-4.188l-1.229-2c0,2.168-8.235,3.927-18.396,3.927
	c-9.481,0-17.396-1.959-18.396-3.927l-1.229,2C0,35.738,8.787,37.613,19.625,37.613z"/&gt;
&lt;linearGradient id="SVGID_3_" gradientUnits="userSpaceOnUse" x1="371.4297" y1="646" x2="408.2217" y2="646" gradientTransform="matrix(1 0 0 1 -370.2002 -614.5742)"&gt;
	&lt;stop  offset="0" style="stop-color:#C9C9C9"/&gt;
	&lt;stop  offset="1" style="stop-color:#808080"/&gt;
&lt;/linearGradient&gt;
&lt;ellipse fill="url(#SVGID_3_)" cx="19.625" cy="31.425" rx="18.396" ry="3.926"/&gt;
&lt;linearGradient id="SVGID_4_" gradientUnits="userSpaceOnUse" x1="370.2002" y1="641.0938" x2="409.4502" y2="641.0938" gradientTransform="matrix(1 0 0 1 -370.2002 -614.5742)"&gt;
	&lt;stop  offset="0" style="stop-color:#4D4D4D"/&gt;
	&lt;stop  offset="0.0558" style="stop-color:#5F5F5F"/&gt;
	&lt;stop  offset="0.2103" style="stop-color:#8D8D8D"/&gt;
	&lt;stop  offset="0.3479" style="stop-color:#AEAEAE"/&gt;
	&lt;stop  offset="0.4623" style="stop-color:#C2C2C2"/&gt;
	&lt;stop  offset="0.5394" style="stop-color:#C9C9C9"/&gt;
	&lt;stop  offset="0.6247" style="stop-color:#C5C5C5"/&gt;
	&lt;stop  offset="0.7072" style="stop-color:#BABABA"/&gt;
	&lt;stop  offset="0.7885" style="stop-color:#A6A6A6"/&gt;
	&lt;stop  offset="0.869" style="stop-color:#8B8B8B"/&gt;
	&lt;stop  offset="0.9484" style="stop-color:#686868"/&gt;
	&lt;stop  offset="1" style="stop-color:#4D4D4D"/&gt;
&lt;/linearGradient&gt;
&lt;path fill="url(#SVGID_4_)" d="M19.625,23.613C8.787,23.613,0,21.738,0,19.425v10c0,2.313,8.787,4.188,19.625,4.188
	c10.839,0,19.625-1.875,19.625-4.188v-10C39.25,21.738,30.464,23.613,19.625,23.613z"/&gt;
&lt;linearGradient id="SVGID_5_" gradientUnits="userSpaceOnUse" x1="370.2002" y1="635.0938" x2="409.4502" y2="635.0938" gradientTransform="matrix(1 0 0 1 -370.2002 -614.5742)"&gt;
	&lt;stop  offset="0" style="stop-color:#B3B3B3"/&gt;
	&lt;stop  offset="0.0171" style="stop-color:#B6B6B6"/&gt;
	&lt;stop  offset="0.235" style="stop-color:#D7D7D7"/&gt;
	&lt;stop  offset="0.4168" style="stop-color:#EBEBEB"/&gt;
	&lt;stop  offset="0.5394" style="stop-color:#F2F2F2"/&gt;
	&lt;stop  offset="0.6579" style="stop-color:#EEEEEE"/&gt;
	&lt;stop  offset="0.7724" style="stop-color:#E3E3E3"/&gt;
	&lt;stop  offset="0.8853" style="stop-color:#CFCFCF"/&gt;
	&lt;stop  offset="0.9965" style="stop-color:#B4B4B4"/&gt;
	&lt;stop  offset="1" style="stop-color:#B3B3B3"/&gt;
&lt;/linearGradient&gt;
&lt;path fill="url(#SVGID_5_)" d="M19.625,23.613c10.839,0,19.625-1.875,19.625-4.188l-1.229-2c0,2.168-8.235,3.926-18.396,3.926
	c-9.481,0-17.396-1.959-18.396-3.926l-1.229,2C0,21.738,8.787,23.613,19.625,23.613z"/&gt;
&lt;linearGradient id="SVGID_6_" gradientUnits="userSpaceOnUse" x1="371.4297" y1="632" x2="408.2217" y2="632" gradientTransform="matrix(1 0 0 1 -370.2002 -614.5742)"&gt;
	&lt;stop  offset="0" style="stop-color:#C9C9C9"/&gt;
	&lt;stop  offset="1" style="stop-color:#808080"/&gt;
&lt;/linearGradient&gt;
&lt;ellipse fill="url(#SVGID_6_)" cx="19.625" cy="17.426" rx="18.396" ry="3.926"/&gt;
&lt;linearGradient id="SVGID_7_" gradientUnits="userSpaceOnUse" x1="370.2002" y1="627.5938" x2="409.4502" y2="627.5938" gradientTransform="matrix(1 0 0 1 -370.2002 -614.5742)"&gt;
	&lt;stop  offset="0" style="stop-color:#4D4D4D"/&gt;
	&lt;stop  offset="0.0558" style="stop-color:#5F5F5F"/&gt;
	&lt;stop  offset="0.2103" style="stop-color:#8D8D8D"/&gt;
	&lt;stop  offset="0.3479" style="stop-color:#AEAEAE"/&gt;
	&lt;stop  offset="0.4623" style="stop-color:#C2C2C2"/&gt;
	&lt;stop  offset="0.5394" style="stop-color:#C9C9C9"/&gt;
	&lt;stop  offset="0.6247" style="stop-color:#C5C5C5"/&gt;
	&lt;stop  offset="0.7072" style="stop-color:#BABABA"/&gt;
	&lt;stop  offset="0.7885" style="stop-color:#A6A6A6"/&gt;
	&lt;stop  offset="0.869" style="stop-color:#8B8B8B"/&gt;
	&lt;stop  offset="0.9484" style="stop-color:#686868"/&gt;
	&lt;stop  offset="1" style="stop-color:#4D4D4D"/&gt;
&lt;/linearGradient&gt;
&lt;path fill="url(#SVGID_7_)" d="M19.625,10.113C8.787,10.113,0,8.238,0,5.925v10c0,2.313,8.787,4.188,19.625,4.188
	c10.839,0,19.625-1.875,19.625-4.188v-10C39.25,8.238,30.464,10.113,19.625,10.113z"/&gt;
&lt;linearGradient id="SVGID_8_" gradientUnits="userSpaceOnUse" x1="370.2002" y1="621.5938" x2="409.4502" y2="621.5938" gradientTransform="matrix(1 0 0 1 -370.2002 -614.5742)"&gt;
	&lt;stop  offset="0" style="stop-color:#B3B3B3"/&gt;
	&lt;stop  offset="0.0171" style="stop-color:#B6B6B6"/&gt;
	&lt;stop  offset="0.235" style="stop-color:#D7D7D7"/&gt;
	&lt;stop  offset="0.4168" style="stop-color:#EBEBEB"/&gt;
	&lt;stop  offset="0.5394" style="stop-color:#F2F2F2"/&gt;
	&lt;stop  offset="0.6579" style="stop-color:#EEEEEE"/&gt;
	&lt;stop  offset="0.7724" style="stop-color:#E3E3E3"/&gt;
	&lt;stop  offset="0.8853" style="stop-color:#CFCFCF"/&gt;
	&lt;stop  offset="0.9965" style="stop-color:#B4B4B4"/&gt;
	&lt;stop  offset="1" style="stop-color:#B3B3B3"/&gt;
&lt;/linearGradient&gt;
&lt;path fill="url(#SVGID_8_)" d="M19.625,10.113c10.839,0,19.625-1.875,19.625-4.188l-1.229-2c0,2.168-8.235,3.926-18.396,3.926
	c-9.481,0-17.396-1.959-18.396-3.926L0,5.925C0,8.238,8.787,10.113,19.625,10.113z"/&gt;
&lt;linearGradient id="SVGID_9_" gradientUnits="userSpaceOnUse" x1="371.4297" y1="618.5" x2="408.2217" y2="618.5" gradientTransform="matrix(1 0 0 1 -370.2002 -614.5742)"&gt;
	&lt;stop  offset="0" style="stop-color:#C9C9C9"/&gt;
	&lt;stop  offset="1" style="stop-color:#808080"/&gt;
&lt;/linearGradient&gt;
&lt;ellipse fill="url(#SVGID_9_)" cx="19.625" cy="3.926" rx="18.396" ry="3.926"/&gt;
&lt;path opacity="0.24" fill="#FFFFFF" enable-background="new    " d="M31.291,46.792c0,0-4.313,0.578-7.249,0.694
	C20.917,47.613,15,47.613,15,47.613l-2.443-10.279l-0.119-2.283l-1.231-1.842L9.789,23.024l-0.082-0.119L9.3,20.715l-1.45-1.44
	L5.329,8.793c0,0,5.296,0.882,7.234,1.07s8.375,0.25,8.375,0.25l3,9.875l-0.25,1.313l1.063,2.168l2.312,9.644l-0.375,1.875
	l1.627,2.193L31.291,46.792z"/&gt;
&lt;/svg&gt;
</y:Resource>
    </y:Resources>
  </data>
</graphml>
